R Experiments: COVID-19 in Europe
…
# Visualise all the countries caces data
paged_table(all.corona)

We immediately see that in China the total number of confirmed cases is still high, but the new cases are extremely low. If we look instead at the data from nCov2019, we get very similar numbers (but not exactly identical, as it is expected).

all.ncov %>% 
  arrange(desc(cum_confirm))

# A tibble: 2,631 x 5
   time       country cum_confirm cum_heal cum_dead
   <date>     <chr>         <int>    <int>    <int>
 1 2020-03-16 China         81116    68799     3231
 2 2020-03-15 China         81077    67863     3218
 3 2020-03-14 China         81048    67022     3204
 4 2020-03-13 China         81007    64239     3181
 5 2020-03-12 China         80984    62919     3173
 6 2020-03-11 China         80980    62887     3173
 7 2020-03-10 China         80955    61567     3162
 8 2020-03-09 China         80924    59982     3140
 9 2020-03-08 China         80904    58684     3123
10 2020-03-07 China         80859    57143     3100
#  with 2,621 more rows
…
